{
    "metadata": {
      "name": "gw_devportal",
      "displayName": "Gateway Dev Portal",
       "tags": [
        "devportal"
      ]
    },
    "desiredState": {
      "ingress": {
        "uris": {
             "http://devportal.arcadia-finance.io": {}
        },
        "placement": {
          "instanceRefs": [
            {
              "ref": "/infrastructure/locations/unspecified/instances/{{ DEVPORTAL_ID.stdout }}"
            }
          ]
        }
      }
    }
  }
  